Guerry data: Multivariate Analysis • Guerry
…
Reshape the data from wide to long. This gives
guerry_long, where the different variables are in a column
labeled variable and the values are in
value.

data("Guerry", package="Guerry")
guerry_long <- Guerry |>
  filter(!is.na(Region)) |>
  select(dept:Suicides) |>
  pivot_longer(cols = Crime_pers:Suicides,
               names_to = "variable",
               values_to = "value")
guerry_long
#> # A tibble: 510 × 5
#>     dept Region Department variable   value
#>    <int> <fct>  <fct>      <chr>      <int>
#>  1     1 E      Ain        Crime_pers 28870
#>  2     1 E      Ain        Crime_prop 15890
#>  3     1 E      Ain        Literacy      37
#>  4     1 E      Ain        Donations   5098
#>  5     1 E      Ain        Infants    33120
#>  6     1 E      Ain        Suicides   35039
#>  7     2 N      Aisne      Crime_pers 26226
#>  8     2 N      Aisne      Crime_prop  5521
#>  9     2 N      Aisne      Literacy      51
#> 10     2 N      Aisne      Donations   8901
#> # ℹ 500 more rows
…
